hw2
…
## # A tibble: 2 x 2
##   carat     n
##   <dbl> <int>
## 1 0.990    23
## 2 1.00   1558

diamonds %>%
   filter(carat >= 0.9, carat <= 1.1) %>%
   count(carat) %>%
   print(n = 20)

## # A tibble: 21 x 2
##    carat     n
##    <dbl> <int>
##  1 0.900  1485
##  2 0.910   570
##  3 0.920   226
##  4 0.930   142
##  5 0.940    59
##  6 0.950    65
##  7 0.960   103
##  8 0.970    59
##  9 0.980    31
## 10 0.990    23
## 11 1.00   1558
## 12 1.01   2242
## 13 1.02    883
## 14 1.03    523
## 15 1.04    475
## 16 1.05    361
## 17 1.06    373
## 18 1.07    342
## 19 1.08    246
## 20 1.09    287
## # ... with 1 more row
…
